{
  "species": "cobblemon:bewear",
  "order": 0,
  "variations": [
    {
      "aspects": [],
      "poser": "cobblemon:bewear",
      "model": "cobblemon:bewear.geo",
      "texture": "cobblemon:textures/pokemon/0760_bewear/bewear.png",
      "layers": []
    },
    {
      "aspects": [
        "shiny"
      ],
      "texture": "cobblemon:textures/pokemon/0760_bewear/bewear.png"
    }
  ]
}