{
  "name": "Klefki",
  "nationalPokedexNumber": 707,
  "primaryType": "steel",
  "secondaryType": "fairy",
  "abilities": [
    "prankster",
    "h:magician"
  ],
  "baseStats": {
    "hp": 57,
    "attack": 80,
    "defence": 91,
    "special_attack": 80,
    "special_defence": 87,
    "speed": 75
  },
  "catchRate": 75,
  "maleRatio": 0.5,
  "shoulderMountable": false,
  "baseExperienceYield": 165,
  "experienceGroup": "fast",
  "eggCycles": 20,
  "eggGroups": [
    "mineral"
  ],
  "moves": [
    "1:astonish",
    "4:tackle",
    "8:fairywind",
    "12:torment",
    "15:spikes",
    "16:craftyshield",
    "16:fairylock",
    "20:metalsound",
    "24:drainingkiss",
    "28:recycle",
    "32:imprison",
    "34:mirrorshot",
    "36:flashcannon",
    "40:playrough",
    "44:magicroom",
    "48:foulplay",
    "50:healblock",
    "52:lastresort",
    "egg:irondefense",
    "egg:lockon",
    "egg:magnetrise",
    "egg:switcheroo",
    "egg:thief",
    "tm:attract",
    "tm:calmmind",
    "tm:confide",
    "tm:cut",
    "tm:dazzlinggleam",
    "tm:doubleteam",
    "tm:drainingkiss",
    "tm:endure",
    "tm:facade",
    "tm:flashcannon",
    "tm:foulplay",
    "tm:frustration",
    "tm:gigaimpact",
    "tm:hiddenpower",
    "tm:hyperbeam",
    "tm:imprison",
    "tm:irondefense",
    "tm:lightscreen",
    "tm:magicroom",
    "tm:mistyterrain",
    "tm:playrough",
    "tm:protect",
    "tm:psychic",
    "tm:psychup",
    "tm:psyshock",
    "tm:raindance",
    "tm:reflect",
    "tm:rest",
    "tm:return",
    "tm:round",
    "tm:safeguard",
    "tm:sandstorm",
    "tm:secretpower",
    "tm:sleeptalk",
    "tm:snore",
    "tm:spikes",
    "tm:steelbeam",
    "tm:storedpower",
    "tm:substitute",
    "tm:sunnyday",
    "tm:swagger",
    "tm:swift",
    "tm:terablast",
    "tm:thief",
    "tm:thunderwave",
    "tm:torment",
    "tm:toxic",
    "tm:trickroom",
    "tutor:covet",
    "tutor:defog",
    "tutor:foulplay",
    "tutor:irondefense",
    "tutor:lastresort",
    "tutor:magiccoat",
    "tutor:magicroom",
    "tutor:magnetrise",
    "tutor:recycle",
    "tutor:snore",
    "tutor:steelbeam"
  ],
  "labels": [
    "gen6"
  ],
  "pokedex": [
    "cobblemon.species.klefki.desc"
  ],
  "evolutions": [],
  "baseScale": 1,
  "hitbox": {
    "width": 1,
    "height": 1,
    "fixed": false
  },
  "baseFriendship": 50,
  "evYield": {
    "hp": 0,
    "attack": 0,
    "defence": 1,
    "special_attack": 0,
    "special_defence": 0,
    "speed": 0
  },
  "height": 2,
  "weight": 30,
  "aspects": [],
  "cannotDynamax": false
}