{
  "implemented": true,
  "name": "Charcadet",
  "nationalPokedexNumber": 935,
  "primaryType": "fire",
  "abilities": [
    "flashfire",
    "h:flamebody"
  ],
  "baseStats": {
    "hp": 40,
    "attack": 50,
    "defence": 40,
    "special_attack": 50,
    "special_defence": 40,
    "speed": 35
  },
  "behaviour": {
    "resting": {
      "canSleep": true,
      "willSleepOnBed": true,
      "depth": "normal",
      "light": "0-4"
    },
    "moving": {
      "walk": {
        "walkSpeed": 0.25
      }
    }
  },
  "catchRate": 90,
  "maleRatio": 0.5,
  "baseExperienceYield": 51,
  "baseFriendship": 50,
  "evYield": {
    "hp": 0,
    "attack": 0,
    "defence": 0,
    "special_attack": 1,
    "special_defence": 0,
    "speed": 0
  },
  "experienceGroup": "slow",
  "eggCycles": 35,
  "eggGroups": [
    "human_like"
  ],
  "moves": [
    "1:astonish",
    "1:ember",
    "1:leer",
    "8:clearsmog",
    "12:firespin",
    "16:willowisp",
    "20:nightshade",
    "24:flamecharge",
    "28:incinerate",
    "32:lavaplume",
    "egg:destinybond",
    "egg:disable",
    "egg:spite",
    "tm:confuseray",
    "tm:endure",
    "tm:facade",
    "tm:fireblast",
    "tm:firespin",
    "tm:flamecharge",
    "tm:flamethrower",
    "tm:flareblitz",
    "tm:heatwave",
    "tm:helpinghand",
    "tm:nightshade",
    "tm:overheat",
    "tm:protect",
    "tm:sleeptalk",
    "tm:substitute",
    "tm:sunnyday",
    "tm:takedown",
    "tm:terablast",
    "tm:willowisp"
  ],
  "labels": [
    "gen9"
  ],
  "aspects": [],
  "height": 6,
  "weight": 105,
  "evolutions": [
    {
      "id": "charcadet_armarouge",
      "variant": "item_interact",
      "result": "armarouge",
      "consumeHeldItem": false,
      "learnableMoves": [
        "psyshock"
      ],
      "requirements": [],
      "requiredContext": "cobblemon:auspicious_armor"
    },
    {
      "id": "charcadet_ceruledge",
      "variant": "item_interact",
      "result": "ceruledge",
      "consumeHeldItem": false,
      "learnableMoves": [
        "shadowclaw"
      ],
      "requirements": [],
      "requiredContext": "cobblemon:malicious_armor"
    }
  ],
  "baseScale": 0.55,
  "hitbox": {
    "width": 0.6,
    "height": 1.3,
    "fixed": false
  },
  "cannotDynamax": false,
  "pokedex": [
    "cobblemon.species.charcadet.desc"
  ]
}