{
  "implemented": true,
  "name": "Durant",
  "nationalPokedexNumber": 632,
  "primaryType": "bug",
  "secondaryType": "steel",
  "abilities": [
    "swarm",
    "hustle",
    "h:truant"
  ],
  "baseStats": {
    "hp": 58,
    "attack": 109,
    "defence": 112,
    "special_attack": 48,
    "special_defence": 48,
    "speed": 109
  },
  "catchRate": 90,
  "maleRatio": 0.5,
  "shoulderMountable": false,
  "baseExperienceYield": 169,
  "experienceGroup": "medium_fast",
  "eggCycles": 20,
  "eggGroups": [
    "bug"
  ],
  "drops": {
    "amount": "1",
    "entries": [
      {
        "item": "minecraft:raw_iron",
        "percentage": 50
      }
    ]
  },
  "moves": [
    "1:furycutter",
    "1:sandattack",
    "4:visegrip",
    "8:metalclaw",
    "12:beatup",
    "16:bugbite",
    "20:bite",
    "24:agility",
    "28:dig",
    "32:xscissor",
    "36:crunch",
    "40:metalsound",
    "44:ironhead",
    "48:entrainment",
    "52:irondefense",
    "56:guillotine",
    "egg:batonpass",
    "egg:endure",
    "egg:feintattack",
    "egg:firstimpression",
    "egg:flail",
    "egg:infestation",
    "egg:metalburst",
    "egg:rockclimb",
    "egg:screech",
    "egg:strugglebug",
    "egg:thunderfang",
    "tm:aerialace",
    "tm:agility",
    "tm:attract",
    "tm:batonpass",
    "tm:beatup",
    "tm:confide",
    "tm:crunch",
    "tm:cut",
    "tm:dig",
    "tm:doubleteam",
    "tm:endure",
    "tm:energyball",
    "tm:facade",
    "tm:flashcannon",
    "tm:frustration",
    "tm:gigaimpact",
    "tm:helpinghand",
    "tm:hiddenpower",
    "tm:honeclaws",
    "tm:irondefense",
    "tm:ironhead",
    "tm:protect",
    "tm:rest",
    "tm:retaliate",
    "tm:return",
    "tm:rockpolish",
    "tm:rockslide",
    "tm:rocksmash",
    "tm:rocktomb",
    "tm:round",
    "tm:sandstorm",
    "tm:screech",
    "tm:secretpower",
    "tm:shadowclaw",
    "tm:sleeptalk",
    "tm:snore",
    "tm:stompingtantrum",
    "tm:stoneedge",
    "tm:strength",
    "tm:strugglebug",
    "tm:substitute",
    "tm:superpower",
    "tm:swagger",
    "tm:thunderfang",
    "tm:thunderwave",
    "tm:toxic",
    "tm:xscissor",
    "tutor:bugbite",
    "tutor:endeavor",
    "tutor:endure",
    "tutor:furycutter",
    "tutor:irondefense",
    "tutor:ironhead",
    "tutor:skittersmack",
    "tutor:sleeptalk",
    "tutor:snore",
    "tutor:steelbeam",
    "tutor:superpower",
    "tutor:thunderfang"
  ],
  "labels": [
    "gen5"
  ],
  "pokedex": [
    "cobblemon.species.durant.desc"
  ],
  "evolutions": [],
  "baseScale": 1,
  "hitbox": {
    "width": 1,
    "height": 1,
    "fixed": false
  },
  "baseFriendship": 50,
  "evYield": {
    "hp": 0,
    "attack": 0,
    "defence": 2,
    "special_attack": 0,
    "special_defence": 0,
    "speed": 0
  },
  "height": 3,
  "weight": 330,
  "aspects": [],
  "cannotDynamax": false
}