{
  "implemented": true,
  "name": "Luxray",
  "nationalPokedexNumber": 405,
  "primaryType": "electric",
  "abilities": [
    "rivalry",
    "intimidate",
    "h:guts"
  ],
  "baseStats": {
    "hp": 80,
    "attack": 120,
    "defence": 79,
    "special_attack": 95,
    "special_defence": 79,
    "speed": 70
  },
  "catchRate": 45,
  "maleRatio": 0.5,
  "shoulderMountable": false,
  "baseExperienceYield": 262,
  "experienceGroup": "medium_slow",
  "eggCycles": 20,
  "eggGroups": [
    "field"
  ],
  "moves": [
    "1:charge",
    "1:electricterrain",
    "1:leer",
    "1:tackle",
    "1:thundershock",
    "12:bite",
    "13:bite",
    "13:spark",
    "18:bite",
    "18:spark",
    "23:roar",
    "24:roar",
    "28:swagger",
    "33:voltswitch",
    "35:crunch",
    "35:thunderfang",
    "40:scaryface",
    "42:crunch",
    "48:thunderwave",
    "49:scaryface",
    "56:crunch",
    "56:discharge",
    "63:wildcharge",
    "64:discharge",
    "72:swagger",
    "80:wildcharge",
    "tm:agility",
    "tm:attract",
    "tm:bodyslam",
    "tm:captivate",
    "tm:chargebeam",
    "tm:confide",
    "tm:confuseray",
    "tm:crunch",
    "tm:doubleteam",
    "tm:eerieimpulse",
    "tm:electricterrain",
    "tm:electroball",
    "tm:endure",
    "tm:facade",
    "tm:faketears",
    "tm:firefang",
    "tm:flash",
    "tm:frustration",
    "tm:gigaimpact",
    "tm:helpinghand",
    "tm:hiddenpower",
    "tm:hyperbeam",
    "tm:icefang",
    "tm:irontail",
    "tm:lightscreen",
    "tm:naturalgift",
    "tm:playrough",
    "tm:protect",
    "tm:psychicfangs",
    "tm:raindance",
    "tm:rest",
    "tm:return",
    "tm:roar",
    "tm:round",
    "tm:scaryface",
    "tm:secretpower",
    "tm:shockwave",
    "tm:sleeptalk",
    "tm:snarl",
    "tm:snore",
    "tm:strength",
    "tm:substitute",
    "tm:sunnyday",
    "tm:superpower",
    "tm:swagger",
    "tm:swift",
    "tm:takedown",
    "tm:terablast",
    "tm:thief",
    "tm:throatchop",
    "tm:thunder",
    "tm:thunderbolt",
    "tm:thunderfang",
    "tm:thunderwave",
    "tm:toxic",
    "tm:trailblaze",
    "tm:voltswitch",
    "tm:wildcharge",
    "tutor:furycutter",
    "tutor:headbutt",
    "tutor:helpinghand",
    "tutor:irontail",
    "tutor:laserfocus",
    "tutor:magnetrise",
    "tutor:mudslap",
    "tutor:risingvoltage",
    "tutor:shockwave",
    "tutor:signalbeam",
    "tutor:sleeptalk",
    "tutor:snore",
    "tutor:superpower",
    "tutor:swift",
    "tutor:throatchop"
  ],
  "labels": [
    "gen4"
  ],
  "pokedex": [
    "cobblemon.species.luxray.desc"
  ],
  "preEvolution": "luxio",
  "evolutions": [],
  "baseScale": 1,
  "hitbox": {
    "width": 1.2,
    "height": 1.6,
    "fixed": false
  },
  "baseFriendship": 50,
  "evYield": {
    "hp": 0,
    "attack": 3,
    "defence": 0,
    "special_attack": 0,
    "special_defence": 0,
    "speed": 0
  },
  "height": 14,
  "weight": 420,
  "aspects": [],
  "cannotDynamax": false
}