{
	"format_version": "1.8.0",
	"animations": {
		"animation.tandemaus.ground_idle": {
			"loop": true,
			"bones": {
				"torso": {
					"position": [0, "math.sin(q.anim_time*90*5)*0.1-0.1", 0]
				},
				"torso2": {
					"position": [0, "math.sin(q.anim_time*90*5-180)*0.1-0.1", 0]
				},
				"body_2": {
					"position": [2.25, 0, 0.5]
				},
				"tail2": {
					"rotation": ["-math.sin(q.anim_time*90*5+90-180)*3", 0, 0]
				},
				"head2": {
					"rotation": ["math.sin(q.anim_time*90*5+90-180)*1.5", 0, 0]
				},
				"arm_left2": {
					"rotation": [0, 15, "-math.sin(q.anim_time*90*5-180-90)*2"]
				},
				"arm_right2": {
					"rotation": [0, -15, "math.sin(q.anim_time*90*5-180-90)*2"]
				},
				"body_1": {
					"position": [-2.25, 0, -0.5]
				},
				"arm_right": {
					"rotation": [0, -15, "math.sin(q.anim_time*90*5-90)*2"]
				},
				"tail": {
					"rotation": ["-math.sin(q.anim_time*90*5+90)*3", 0, 0]
				},
				"head": {
					"rotation": ["math.sin(q.anim_time*90*5+90)*1.5", 0, 0]
				},
				"arm_left": {
					"rotation": [0, 15, "-math.sin(q.anim_time*90*5-90)*2"]
				}
			}
		},
		"animation.tandemaus.ground_walk": {
			"loop": true,
			"bones": {
				"body_1": {
					"position": [-2.25, "4*math.abs(math.sin(q.anim_time*90*6-30))", -0.5]
				},
				"leg_right": {
					"rotation": ["-20*math.sin(q.anim_time*90*6-30)", 0, 0]
				},
				"leg_left": {
					"rotation": ["20*math.sin(q.anim_time*90*6-30)", 0, 0]
				},
				"torso": {
					"rotation": [0, "-15*math.sin(q.anim_time*90*6-30)", 0]
				},
				"arm_right": {
					"rotation": [0, 0, "-5*math.sin(q.anim_time*90*12-30)"]
				},
				"tail": {
					"rotation": ["-15*math.sin(q.anim_time*90*12-30)", 0, 0]
				},
				"head": {
					"rotation": ["2.5*math.sin(q.anim_time*90*12-30)", "15*math.sin(q.anim_time*90*6-30)", 0]
				},
				"ear_right": {
					"rotation": ["2.5*math.sin(q.anim_time*90*12-30)", 0, 0]
				},
				"ear_left": {
					"rotation": ["2.5*math.sin(q.anim_time*90*12-30)", 0, 0]
				},
				"arm_left": {
					"rotation": [0, 0, "5*math.sin(q.anim_time*90*12-30)"]
				},
				"body_2": {
					"position": [2.25, "4*math.abs(math.sin(q.anim_time*90*6))", 0.5]
				},
				"leg_right2": {
					"rotation": ["20*math.sin(q.anim_time*90*6)", 0, 0]
				},
				"leg_left2": {
					"rotation": ["-20*math.sin(q.anim_time*90*6)", 0, 0]
				},
				"torso2": {
					"rotation": [0, "15*math.sin(q.anim_time*90*6)", 0]
				},
				"tail2": {
					"rotation": ["-15*math.sin(q.anim_time*90*12)", 0, 0]
				},
				"head2": {
					"rotation": ["2.5*math.sin(q.anim_time*90*12)", "-15*math.sin(q.anim_time*90*6)", 0]
				},
				"ear_right2": {
					"rotation": ["2.5*math.sin(q.anim_time*90*12)", 0, 0]
				},
				"ear_left2": {
					"rotation": ["2.5*math.sin(q.anim_time*90*12)", 0, 0]
				},
				"arm_left2": {
					"rotation": [0, 0, "5*math.sin(q.anim_time*90*12)"]
				},
				"arm_right2": {
					"rotation": [0, 0, "-5*math.sin(q.anim_time*90*12)"]
				}
			}
		},
		"animation.tandemaus.blink1": {
			"animation_length": 0.25,
			"bones": {
				"eyelids2": {
					"position": {
						"0.0": [0, 0, -0.1],
						"0.2083": [0, 0, -0.1],
						"0.25": [0, 0, 0]
					}
				}
			}
		},
		"animation.tandemaus.blink2": {
			"animation_length": 0.25,
			"bones": {
				"eyelids": {
					"position": {
						"0.0": [0, 0, -0.1],
						"0.2083": [0, 0, -0.1],
						"0.25": [0, 0, 0]
					}
				}
			}
		},
		"animation.tandemaus.cry": {
			"animation_length": 1.25,
			"bones": {
				"head": {
					"rotation": {
						"0.0": [0, 0, 0],
						"0.0833": [10, 0, 0],
						"0.25": [-15, 0, 0],
						"1.0": [-15, 0, 0],
						"1.25": [0, 0, 0]
					}
				},
				"mouth": {
					"position": {
						"0.125": [0, 0, 0],
						"0.1667": [0, -0.075, -0.15],
						"0.9583": [0, -0.075, -0.15],
						"1.0": [0, 0, 0]
					}
				},
				"head2": {
					"rotation": {
						"0.0": [0, 0, 0],
						"0.0833": [10, 0, 0],
						"0.25": [-15, 0, 0],
						"1.0": [-15, 0, 0],
						"1.25": [0, 0, 0]
					}
				},
				"mouth2": {
					"position": {
						"0.125": [0, 0, 0],
						"0.1667": [0, -0.075, -0.15],
						"0.9583": [0, -0.075, -0.15],
						"1.0": [0, 0, 0]
					}
				},
				"head3": {
					"rotation": {
						"0.0": [0, 0, 0],
						"0.0833": [10, 0, 0],
						"0.25": [-15, 0, 0],
						"1.0": [-15, 0, 0],
						"1.25": [0, 0, 0]
					}
				},
				"head4": {
					"rotation": {
						"0.0": [0, 0, 0],
						"0.0833": [10, 0, 0],
						"0.25": [-15, 0, 0],
						"1.0": [-15, 0, 0],
						"1.25": [0, 0, 0]
					}
				}
			}
		},
		"animation.tandemaus.faint": {
			"loop": true,
			"animation_length": 3,
			"bones": {
				"body_2": {
					"rotation": {
						"0.0417": [0, 20, 0],
						"0.5": [0, 20, 0],
						"0.625": [0, 0, 0],
						"1.3333": [0, 0, 0],
						"1.4583": [0, -56.5, 0]
					},
					"position": {
						"0.0417": [0, 0, 0],
						"0.125": [0.75, 3.475, 3],
						"0.25": [1.25, 4.075, 4.25],
						"0.375": [1.6, 3.345, 5],
						"0.4583": [1.6, -0.08, 5],
						"0.5": [1.6, -0.33, 5],
						"0.625": [1.6, -0.03, 5],
						"1.2917": [1.6, -0.03, 5],
						"1.375": [1.6, -0.78, 5],
						"1.4167": [1.6, -0.03, 5],
						"1.5": [6.74, 2.72, 6.36],
						"1.5833": [7.985, 2.02, 6.815],
						"1.6667": [8.6, -0.03, 7],
						"1.75": [8.6, -0.03, 7],
						"1.8333": [8.6, -0.53, 7],
						"1.9583": [8.6, -0.03, 7]
					}
				},
				"leg_right2": {
					"rotation": {
						"0.0": [0, 0, 0],
						"0.2083": [-47.5, 0, 30],
						"0.3333": [-47.5, 0, 30],
						"0.4167": [0, 0, 0],
						"1.4167": [0, 0, 0],
						"1.5": [45, 0, 0],
						"1.625": [45, 0, 0],
						"1.6667": [0, 0, 0]
					}
				},
				"leg_left2": {
					"rotation": {
						"0.0": [0, 0, 0],
						"0.2083": [-47.5, 0, -30],
						"0.3333": [-47.5, 0, -30],
						"0.4167": [0, 0, 0],
						"1.4167": [0, 0, 0],
						"1.5": [-45, 0, 0],
						"1.625": [-45, 0, 0],
						"1.6667": [0, 0, 0]
					}
				},
				"torso2": {
					"rotation": {
						"0.0": [0, 0, 0],
						"0.0833": [27.5, 0, 0],
						"0.25": [21.25, 0, 0],
						"0.4167": [0, 0, 0],
						"0.4583": [10, 0, 0],
						"0.625": [-2.5, 0, 0],
						"1.0": [-2.5, 0, 0],
						"1.2083": [-2.75806, -21.97457, 1.16524],
						"1.375": [-2.81797, -27.47162, 1.30078],
						"1.4583": [14.68, 0.03, 1.3],
						"1.6667": [-2.82, 0.03, 1.3],
						"1.75": [0.93, 0.03, 1.3],
						"1.8333": [14.68, 0.03, 1.3],
						"2.0": [4.68, 0.03, 1.3],
						"2.1667": [-2.82, 0.03, 1.3]
					}
				},
				"tail2": {
					"rotation": ["0+Math.cos((query.anim_time) * 90 * 8) * 5", 0, 0]
				},
				"head2": {
					"rotation": {
						"0.0": [47.5, 0, 0],
						"0.4583": [55, 0, 0],
						"0.7083": [7.61435, 0.08642, -1.31845],
						"0.8333": [5.11435, 0.08642, -1.31845],
						"0.9167": [28.17373, -4.27097, -7.18382],
						"1.0417": [26.63685, -37.71725, -8.82101],
						"1.1667": [9.22576, -39.53152, -6.57979],
						"1.3333": [0.72576, -42.55652, -2.57979],
						"1.4583": [10.73, -17.56, -2.58],
						"1.7083": [3.23, 4.94, -2.58],
						"2.0": [25.73, 4.94, -2.58],
						"2.0833": [17.23, 4.94, -2.58],
						"2.2083": [-26.77, 4.94, -2.58],
						"2.3333": [-31.77, "4.94+Math.cos((query.anim_time) * 90 * 16) * 8", -2.58],
						"2.5833": [-28.71, "4.94+Math.cos((query.anim_time) * 90 * 16) * 8", -2.58],
						"2.75": [-22.77, 4.94, -2.58],
						"2.875": [1.73, 4.94, -2.58],
						"3.0": [4.23, 4.94, -2.58]
					}
				},
				"mouth2": {
					"position": {
						"0.0": [0, 0, 0],
						"0.0417": [0, -0.075, -0.025],
						"0.4583": [0, -0.075, -0.025],
						"0.5": [0, 0, 0],
						"1.1667": [0, 0, 0],
						"1.2083": [0, -0.075, -0.025],
						"1.8333": [0, -0.075, -0.025],
						"1.875": [0, 0, 0],
						"2.125": [0, 0, 0],
						"2.1667": [0, -0.075, -0.025],
						"2.7917": [0, -0.075, -0.025],
						"2.8333": [0, 0, 0]
					}
				},
				"eyelids2": {
					"position": {
						"0.0": [0, 0, -0.1],
						"0.4583": [0, 0, -0.1],
						"0.5": [0, 0, 0],
						"0.875": [0, 0, 0],
						"0.9167": [0, 0, -0.1],
						"1.1667": [0, 0, -0.1],
						"1.2083": [0, 0, 0],
						"2.0833": [0, 0, 0],
						"2.125": [0, 0, -0.1]
					}
				},
				"arm_left2": {
					"rotation": {
						"0.0": [0, 0, -57.5],
						"0.375": [0, 0, -57.5],
						"0.5417": [0, 0, 10],
						"0.75": [0, 0, 17.5],
						"1.0417": [0, 16.775, 17.5],
						"1.25": [0, 77.5, 17.5],
						"1.4167": [0, 87.5, 17.5],
						"1.5": [0, 32.5, 17.5],
						"1.7917": [0, 72.5, 40]
					},
					"position": {
						"1.7917": [0, 0, 0],
						"1.9583": [0, 0, -0.5]
					}
				},
				"arm_right2": {
					"rotation": {
						"0.0": [0, 0, 57.5],
						"0.375": [0, 0, 57.5],
						"0.5417": [0, 0, -10],
						"0.75": [0, 0, -17.5],
						"1.0417": [0, -16.775, -17.5],
						"1.25": [0, -77.5, -17.5],
						"1.4167": [0, -87.5, -17.5],
						"1.5": [0, -32.5, -17.5],
						"1.7917": [0, -72.5, -40]
					},
					"position": {
						"1.7917": [0, 0, 0],
						"1.9583": [0, 0, -0.5]
					}
				},
				"body_1": {
					"rotation": {
						"0.0": [0, 0, 0],
						"0.2083": [-2.775, 26.585, 0],
						"0.3333": [-9, 7.76, 3.7],
						"0.5": [-21.45, -75.93, 5],
						"0.875": [-23.22, -202.34, 5],
						"1.2083": [-25, -281.845, 5],
						"1.5": [-33.725, -313.21, 3.5],
						"1.7083": [-52.725, -325, 0],
						"1.8333": [-75.75, -325, 0]
					},
					"position": {
						"0.0": [0, 0, 0],
						"0.2917": [-0.265, 0, 0.25],
						"0.875": [-1.68, 0, 2.22],
						"1.3333": [-2.42, 0, 3.28],
						"1.6667": [-2.5, -0.5, 3.5],
						"1.8333": [-2.5, -1, 3.5],
						"2.0": [-2.5, -0.5, 3.5],
						"2.2083": [-2.5, -0.25, 3.5]
					}
				},
				"leg_right": {
					"rotation": {
						"0.0": [0, 0, 0],
						"0.4167": [0, 0, 15],
						"0.75": [-20, 0, 42.5],
						"1.4583": [-20, 0, 42.5],
						"1.5417": [-27.66, 0.3, 41.11],
						"1.7083": [-34.58, 0.3, 41.11],
						"1.7917": [-28.58, 0.3, 41.11],
						"1.875": [-7.58, 0.3, 41.11],
						"2.0417": [9.92, 0.3, 41.11],
						"2.2917": [14.92, 0.3, 41.11]
					}
				},
				"leg_left": {
					"rotation": {
						"0.0": [0, 0, 0],
						"0.3333": [9.91615, -1.29876, 7.38733],
						"1.4583": [24.92, -1.3, -7.61],
						"1.5417": [17.59, -6.3, -7.61],
						"1.7083": [-34.58, -16.3, -7.61],
						"1.7917": [-28.58, -16.3, -7.61],
						"1.875": [-7.58, -16.3, -7.61],
						"2.0417": [9.92, -16.3, -7.61],
						"2.2917": [14.92, -16.3, -7.61]
					}
				},
				"arm_right": {
					"rotation": {
						"0.0": [0, 0, 0],
						"0.2917": [0, 0, 0],
						"0.5": [0, 47.5, 0],
						"1.375": [0, 0, 0],
						"1.6667": [0, -47.5, 0],
						"1.9167": [0, 20, 0],
						"2.125": [0, 37.5, 0],
						"2.3333": [0, 42.5, 0]
					}
				},
				"tail": {
					"rotation": {
						"0.0": [0, 0, 0],
						"1.2917": [0, 47.5, 0],
						"1.75": [57.5, 0, 0]
					}
				},
				"head": {
					"rotation": {
						"0.0": [0, 0, 0],
						"0.125": [23.575, -8.75, 0],
						"0.25": [17.78333, -14.58333, 0],
						"0.375": [-6.4, -17.5, 0],
						"0.5417": [-16.09799, 13.17439, -10.87895],
						"0.875": [-23.47242, 8.25612, -9.72133],
						"1.25": [-26.87067, -10.43707, -2.60176],
						"1.5833": [-26.87, -20.44, -2.6],
						"1.7083": [-12.15, -27.01, -2.6],
						"1.8333": [-32.37, -33.44, -2.6],
						"2.0417": [-14.87, -28.165, -2.6],
						"2.3333": [-8.595, -25.94, -2.6],
						"2.75": [-6.1, -25.94, -2.6]
					}
				},
				"eyelids": {
					"position": {
						"0.0417": [0, 0, -0.1],
						"2.1667": [0, 0, -0.1]
					}
				},
				"arm_left": {
					"rotation": {
						"0.0": [0, 0, 0],
						"0.2917": [0, 0, 0],
						"0.5": [0, 85, 0],
						"1.375": [0, 0, 0],
						"1.6667": [0, 45, 0],
						"1.9167": [0, -27.5, 0],
						"2.125": [0, -42.5, 0],
						"2.3333": [0, -47.5, 0]
					}
				}
			}
		}
	},
	"geckolib_format_version": 2
}