{
  "name": "Swalot",
  "nationalPokedexNumber": 317,
  "primaryType": "poison",
  "abilities": [
    "liquidooze",
    "stickyhold",
    "h:gluttony"
  ],
  "baseStats": {
    "hp": 100,
    "attack": 73,
    "defence": 83,
    "special_attack": 73,
    "special_defence": 83,
    "speed": 55
  },
  "catchRate": 75,
  "maleRatio": 0.5,
  "shoulderMountable": false,
  "baseExperienceYield": 163,
  "experienceGroup": "fluctuating",
  "eggCycles": 20,
  "eggGroups": [
    "amorphous"
  ],
  "moves": [
    "1:bodyslam",
    "1:gunkshot",
    "1:poisongas",
    "1:pound",
    "1:sludge",
    "1:venomdrench",
    "1:wringout",
    "1:yawn",
    "12:amnesia",
    "17:acidspray",
    "20:encore",
    "25:toxic",
    "30:spitup",
    "30:stockpile",
    "30:swallow",
    "37:sludgebomb",
    "42:gastroacid",
    "49:belch",
    "tm:acidspray",
    "tm:amnesia",
    "tm:attract",
    "tm:bodypress",
    "tm:bodyslam",
    "tm:brickbreak",
    "tm:bulldoze",
    "tm:bulletseed",
    "tm:captivate",
    "tm:confide",
    "tm:doubleteam",
    "tm:dreameater",
    "tm:earthquake",
    "tm:encore",
    "tm:endure",
    "tm:explosion",
    "tm:facade",
    "tm:firepunch",
    "tm:fling",
    "tm:frustration",
    "tm:gigadrain",
    "tm:gigaimpact",
    "tm:gunkshot",
    "tm:helpinghand",
    "tm:hiddenpower",
    "tm:hyperbeam",
    "tm:icebeam",
    "tm:icepunch",
    "tm:infestation",
    "tm:metronome",
    "tm:mudshot",
    "tm:mudslap",
    "tm:naturalgift",
    "tm:poisonjab",
    "tm:poweruppunch",
    "tm:protect",
    "tm:raindance",
    "tm:rest",
    "tm:return",
    "tm:rocksmash",
    "tm:round",
    "tm:secretpower",
    "tm:seedbomb",
    "tm:shadowball",
    "tm:shockwave",
    "tm:sleeptalk",
    "tm:sludgebomb",
    "tm:sludgewave",
    "tm:snatch",
    "tm:solarbeam",
    "tm:strength",
    "tm:substitute",
    "tm:sunnyday",
    "tm:swagger",
    "tm:swordsdance",
    "tm:takedown",
    "tm:terablast",
    "tm:thief",
    "tm:thunderpunch",
    "tm:thunderwave",
    "tm:toxic",
    "tm:toxicspikes",
    "tm:venoshock",
    "tm:waterpulse",
    "tm:zenheadbutt",
    "tutor:block",
    "tutor:bodyslam",
    "tutor:counter",
    "tutor:defensecurl",
    "tutor:doubleedge",
    "tutor:dreameater",
    "tutor:dynamicpunch",
    "tutor:endure",
    "tutor:explosion",
    "tutor:firepunch",
    "tutor:gastroacid",
    "tutor:gigadrain",
    "tutor:gunkshot",
    "tutor:headbutt",
    "tutor:icepunch",
    "tutor:mimic",
    "tutor:mudslap",
    "tutor:nightmare",
    "tutor:painsplit",
    "tutor:rollout",
    "tutor:seedbomb",
    "tutor:selfdestruct",
    "tutor:shockwave",
    "tutor:sleeptalk",
    "tutor:snatch",
    "tutor:snore",
    "tutor:substitute",
    "tutor:swagger",
    "tutor:thunderpunch",
    "tutor:waterpulse"
  ],
  "labels": [
    "gen3"
  ],
  "pokedex": [
    "cobblemon.species.swalot.desc"
  ],
  "preEvolution": "gulpin",
  "evolutions": [],
  "baseScale": 1,
  "hitbox": {
    "width": 1,
    "height": 1,
    "fixed": false
  },
  "baseFriendship": 70,
  "evYield": {
    "hp": 2,
    "attack": 0,
    "defence": 0,
    "special_attack": 0,
    "special_defence": 0,
    "speed": 0
  },
  "height": 17,
  "weight": 800,
  "aspects": [],
  "cannotDynamax": false
}